{
  "author": "Anitta Dev",
  "description": "",
  "extensionNamespace": "",
  "fullName": "Import Script Tools",
  "name": "ImportScript",
  "shortDescription": "",
  "tags": "script",
  "version": "1.0.0",
  "eventsFunctions": [
    {
      "description": "",
      "fullName": "Script SRC",
      "functionType": "Action",
      "name": "src",
      "sentence": "Script URL: _PARAM1_,Name: _PARAM2_",
      "events": [
        {
          "disabled": false,
          "folded": false,
          "type": "BuiltinCommonInstructions::JsCode",
          "inlineCode": "var args = eventsFunctionContext.getArgument;\nconst script = document.createElement(\"script\");\nscript.events = {\n    error: false,\n    loaded: false\n}\nscript.onload = () => {\n    script.events.loaded = true;\n}\nscript.onerror = () => {\n    script.events.error = true;\n}\nscript.src = args(\"url\");\n\nscript.name = args(\"name\");\ndocument._scripts = {} || document._scripts\ndocument._scripts[args(\"name\")] = script;\ndocument.body.appendChild(script)",
          "parameterObjects": "",
          "useStrict": true
        }
      ],
      "parameters": [
        {
          "codeOnly": false,
          "defaultValue": "",
          "description": "Script URL",
          "name": "url",
          "optional": false,
          "supplementaryInformation": "",
          "type": "string"
        },
        {
          "codeOnly": false,
          "defaultValue": "",
          "description": "Name",
          "name": "name",
          "optional": false,
          "supplementaryInformation": "",
          "type": "string"
        }
      ],
      "objectGroups": []
    },
    {
      "description": "",
      "fullName": "Loaded Script",
      "functionType": "Condition",
      "name": "loaded",
      "sentence": "OnLoad from name id _PARAM1_",
      "events": [
        {
          "disabled": false,
          "folded": false,
          "type": "BuiltinCommonInstructions::JsCode",
          "inlineCode": "let once = false;\r\nlet _scripts = document._scripts;\r\nif (_scripts) {\r\n    for (let i in _scripts) {\r\n        if (once) break;\r\n        if (i === eventsFunctionContext.getArgument(\"name\")) {\r\n            eventsFunctionContext.returnValue = _scripts[i].events.loaded;\r\n            once = true;\r\n        }\r\n    }\r\n} else {\r\n    eventsFunctionContext.returnValue = false;\r\n}",
          "parameterObjects": "",
          "useStrict": true
        }
      ],
      "parameters": [
        {
          "codeOnly": false,
          "defaultValue": "",
          "description": "",
          "name": "name",
          "optional": false,
          "supplementaryInformation": "",
          "type": "string"
        }
      ],
      "objectGroups": []
    },
    {
      "description": "",
      "fullName": "Info",
      "functionType": "Action",
      "name": "info",
      "sentence": "Name: _PARAM1_,Variable Save: _PARAM2_",
      "events": [
        {
          "disabled": false,
          "folded": false,
          "type": "BuiltinCommonInstructions::JsCode",
          "inlineCode": "if (document._scripts) {\n    const getArgument = eventsFunctionContext.getArgument\n    const name = getArgument(\"name\");\n    const variable = getArgument(\"variable\");\n    const scripts_select = document._scripts[name];\n    \n    const scenevariables = runtimeScene.getVariables()\n    const variable_select = scenevariables.get(variable);\n    if (scripts_select) {\n        for (let i in scripts_select.events) {\n            const events = scripts_select.events\n            variable_select.getChild(i).setString(\"\"+events[i]);\n        }\n    }\n}",
          "parameterObjects": "",
          "useStrict": true
        }
      ],
      "parameters": [
        {
          "codeOnly": false,
          "defaultValue": "",
          "description": "",
          "name": "name",
          "optional": false,
          "supplementaryInformation": "",
          "type": "string"
        },
        {
          "codeOnly": false,
          "defaultValue": "",
          "description": "",
          "name": "variable",
          "optional": false,
          "supplementaryInformation": "",
          "type": "string"
        }
      ],
      "objectGroups": []
    },
    {
      "description": "",
      "fullName": "onerror",
      "functionType": "Condition",
      "name": "error",
      "sentence": "OnError from name id _PARAM1_",
      "events": [
        {
          "disabled": false,
          "folded": false,
          "type": "BuiltinCommonInstructions::JsCode",
          "inlineCode": "let once = false;\nlet _scripts = document._scripts;\nif (_scripts) {\n    for (let i in _scripts) {\n        if (once) break;\n        if (i === eventsFunctionContext.getArgument(\"name\")) {\n            eventsFunctionContext.returnValue = _scripts[i].events.error;\n            once = true;\n        }\n    }\n} else {\n    eventsFunctionContext.returnValue = false;\n}",
          "parameterObjects": "",
          "useStrict": true
        }
      ],
      "parameters": [
        {
          "codeOnly": false,
          "defaultValue": "",
          "description": "",
          "name": "name",
          "optional": false,
          "supplementaryInformation": "",
          "type": "string"
        }
      ],
      "objectGroups": []
    }
  ],
  "eventsBasedBehaviors": []
}